%YAML 1.1
%TAG !u! tag:unity3d.com,2011:
--- !u!21 &2100000
Material:
  serializedVersion: 6
  m_ObjectHideFlags: 0
  m_CorrespondingSourceObject: {fileID: 0}
  m_PrefabInstance: {fileID: 0}
  m_PrefabAsset: {fileID: 0}
  m_Name: Circle 2
  m_Shader: {fileID: 10720, guid: 0000000000000000f000000000000000, type: 0}
  m_ShaderKeywords: 
  m_LightmapFlags: 6
  m_EnableInstancingVariants: 0
  m_DoubleSidedGI: 0
  m_CustomRenderQueue: -1
  stringTagMap: {}
  disabledShaderPasses:
  - ALWAYS
  - SHADOWCASTER
  m_SavedProperties:
    serializedVersion: 3
    m_TexEnvs:
    - Texture2D_C69EB180:
        m_Texture: {fileID: 2800000, guid: e5c37ab0c7b37af4f981195d3caaf4b4, type: 3}
        m_Scale: {x: 1, y: 1}
        m_Offset: {x: 0, y: 0}
    - _AlphaTex:
        m_Texture: {fileID: 0}
        m_Scale: {x: 1, y: 1}
        m_Offset: {x: 0, y: 0}
    - _BaseMap:
        m_Texture: {fileID: 2800000, guid: b61d46a35547ce04bac60b0affd0c498, type: 3}
        m_Scale: {x: 1, y: 1}
        m_Offset: {x: 0, y: 0}
    - _BumpMap:
        m_Texture: {fileID: 0}
        m_Scale: {x: 1, y: 1}
        m_Offset: {x: 0, y: 0}
    - _Control:
        m_Texture: {fileID: 0}
        m_Scale: {x: 1, y: 1}
        m_Offset: {x: 0, y: 0}
    - _DetailAlbedoMap:
        m_Texture: {fileID: 0}
        m_Scale: {x: 1, y: 1}
        m_Offset: {x: 0, y: 0}
    - _DetailMask:
        m_Texture: {fileID: 0}
        m_Scale: {x: 1, y: 1}
        m_Offset: {x: 0, y: 0}
    - _DetailNormalMap:
        m_Texture: {fileID: 0}
        m_Scale: {x: 1, y: 1}
        m_Offset: {x: 0, y: 0}
    - _EmissionMap:
        m_Texture: {fileID: 0}
        m_Scale: {x: 1, y: 1}
        m_Offset: {x: 0, y: 0}
    - _MainTex:
        m_Texture: {fileID: 2800000, guid: b61d46a35547ce04bac60b0affd0c498, type: 3}
        m_Scale: {x: 1, y: 1}
        m_Offset: {x: 0, y: 0}
    - _MaskTex:
        m_Texture: {fileID: 0}
        m_Scale: {x: 1, y: 1}
        m_Offset: {x: 0, y: 0}
    - _MetallicGlossMap:
        m_Texture: {fileID: 0}
        m_Scale: {x: 1, y: 1}
        m_Offset: {x: 0, y: 0}
    - _Normal0:
        m_Texture: {fileID: 0}
        m_Scale: {x: 1, y: 1}
        m_Offset: {x: 0, y: 0}
    - _Normal1:
        m_Texture: {fileID: 0}
        m_Scale: {x: 1, y: 1}
        m_Offset: {x: 0, y: 0}
    - _Normal2:
        m_Texture: {fileID: 0}
        m_Scale: {x: 1, y: 1}
        m_Offset: {x: 0, y: 0}
    - _Normal3:
        m_Texture: {fileID: 0}
        m_Scale: {x: 1, y: 1}
        m_Offset: {x: 0, y: 0}
    - _NormalMap:
        m_Texture: {fileID: 0}
        m_Scale: {x: 1, y: 1}
        m_Offset: {x: 0, y: 0}
    - _OcclusionMap:
        m_Texture: {fileID: 0}
        m_Scale: {x: 1, y: 1}
        m_Offset: {x: 0, y: 0}
    - _ParallaxMap:
        m_Texture: {fileID: 0}
        m_Scale: {x: 1, y: 1}
        m_Offset: {x: 0, y: 0}
    - _SampleTexture2D_72715EE4_Texture:
        m_Texture: {fileID: 2800000, guid: ca084ebab0cef7c4ba746cdb442f9c1e, type: 3}
        m_Scale: {x: 1, y: 1}
        m_Offset: {x: 0, y: 0}
    - _SampleTexture2D_C873BFA4_Texture:
        m_Texture: {fileID: 2800000, guid: 2de0d72a6700bd94ea57111b29e246fc, type: 3}
        m_Scale: {x: 1, y: 1}
        m_Offset: {x: 0, y: 0}
    - _SampleTexture2D_CDBC38BA_Texture:
        m_Texture: {fileID: 2800000, guid: 5e98de278b2ccc14f89b76b85596a3f3, type: 3}
        m_Scale: {x: 1, y: 1}
        m_Offset: {x: 0, y: 0}
    - _SampleTexture2D_D6BD25ED_Texture:
        m_Texture: {fileID: 2800000, guid: ac80c335ebd6dde4fa54a82050064545, type: 3}
        m_Scale: {x: 1, y: 1}
        m_Offset: {x: 0, y: 0}
    - _SpecGlossMap:
        m_Texture: {fileID: 0}
        m_Scale: {x: 1, y: 1}
        m_Offset: {x: 0, y: 0}
    - _Splat0:
        m_Texture: {fileID: 0}
        m_Scale: {x: 1, y: 1}
        m_Offset: {x: 0, y: 0}
    - _Splat1:
        m_Texture: {fileID: 0}
        m_Scale: {x: 1, y: 1}
        m_Offset: {x: 0, y: 0}
    - _Splat2:
        m_Texture: {fileID: 0}
        m_Scale: {x: 1, y: 1}
        m_Offset: {x: 0, y: 0}
    - _Splat3:
        m_Texture: {fileID: 0}
        m_Scale: {x: 1, y: 1}
        m_Offset: {x: 0, y: 0}
    m_Floats:
    - PixelSnap: 0
    - Vector1_2EE2CB80: 0.1
    - _AlphaClip: 0
    - _Blend: 2
    - _BlendOp: 0
    - _BumpScale: 1
    - _CameraFadingEnabled: 0
    - _CameraFarFadeDistance: 2
    - _CameraNearFadeDistance: 1
    - _ColorMode: 0
    - _Cull: 0
    - _Cutoff: 0.5
    - _DetailNormalMapScale: 1
    - _DistortionBlend: 0.5
    - _DistortionEnabled: 0
    - _DistortionStrength: 1
    - _DistortionStrengthScaled: 0
    - _DstBlend: 1
    - _EmissionEnabled: 0
    - _EnableExternalAlpha: 0
    - _EnvironmentReflections: 1
    - _FlipbookBlending: 0
    - _FlipbookMode: 0
    - _GlossMapScale: 1
    - _Glossiness: 0.477
    - _GlossinessSource: 0
    - _GlossyReflections: 1
    - _LightingEnabled: 1
    - _Metallic: 0
    - _Metallic0: 0
    - _Metallic1: 0
    - _Metallic2: 0
    - _Metallic3: 0
    - _Mode: 4
    - _OcclusionStrength: 1
    - _Opacity: 1
    - _Parallax: 0.02
    - _QueueOffset: 0
    - _ReceiveShadows: 1
    - _SampleGI: 0
    - _Shininess: 1
    - _Smoothness: 0.477
    - _Smoothness0: 0.5
    - _Smoothness1: 0.5
    - _Smoothness2: 0.5
    - _Smoothness3: 0.5
    - _SmoothnessTextureChannel: 0
    - _SoftParticlesEnabled: 0
    - _SoftParticlesFarFadeDistance: 1
    - _SoftParticlesNearFadeDistance: 0
    - _SpecSource: 0
    - _SpecularHighlights: 1
    - _SrcBlend: 1
    - _Surface: 1
    - _TERRAIN_INSTANCED_PERPIXEL_NORMAL: 0
    - _UVSec: 0
    - _UseAoMap: 0
    - _UseColorMap: 0
    - _UseEmissiveMap: 0
    - _UseMetallicMap: 0
    - _UseNormalMap: 0
    - _UseOpacityMap: 0
    - _UseRoughnessMap: 0
    - _WorkflowMode: 1
    - _ZWrite: 0
    m_Colors:
    - Color_23C9B10D: {r: 0.04561229, g: 0.14495295, b: 0.38679245, a: 0}
    - Color_A2AAE5B5: {r: 0.11372546, g: 0.62745106, b: 0.8352941, a: 0}
    - Vector2_C848BFFB: {r: 0.25, g: 0.25, b: 0, a: 0}
    - _BaseColor: {r: 19.468576, g: 19.468576, b: 19.468576, a: 1}
    - _BaseColorAddSubDiff: {r: 0, g: 0, b: 0, a: 0}
    - _CameraFadeParams: {r: 0, g: Infinity, b: 0, a: 0}
    - _Color: {r: 19.468573, g: 19.468573, b: 19.468573, a: 1}
    - _ColorAddSubDiff: {r: 0, g: 0, b: 0, a: 0}
    - _EmisColor: {r: 0.19999996, g: 0.19999996, b: 0.19999996, a: 0}
    - _EmissionColor: {r: 0, g: 0, b: 0, a: 1}
    - _Flip: {r: 1, g: 1, b: 1, a: 1}
    - _RendererColor: {r: 1, g: 1, b: 1, a: 1}
    - _SoftParticleFadeParams: {r: 0, g: 0, b: 0, a: 0}
    - _SpecColor: {r: 0.19999996, g: 0.19999996, b: 0.19999996, a: 1}
    - _UvOffset: {r: 0, g: 0, b: 0, a: 0}
    - _UvTiling: {r: 1, g: 1, b: 0, a: 0}
--- !u!114 &34417852583358467
MonoBehaviour:
  m_ObjectHideFlags: 11
  m_CorrespondingSourceObject: {fileID: 0}
  m_PrefabInstance: {fileID: 0}
  m_PrefabAsset: {fileID: 0}
  m_GameObject: {fileID: 0}
  m_Enabled: 1
  m_EditorHideFlags: 0
  m_Script: {fileID: 11500000, guid: d0353a89b1f911e48b9e16bdc9f2e058, type: 3}
  m_Name: 
  m_EditorClassIdentifier: 
  version: 1
