%YAML 1.1
%TAG !u! tag:unity3d.com,2011:
--- !u!114 &11400000
MonoBehaviour:
  m_ObjectHideFlags: 0
  m_CorrespondingSourceObject: {fileID: 0}
  m_PrefabInstance: {fileID: 0}
  m_PrefabAsset: {fileID: 0}
  m_GameObject: {fileID: 0}
  m_Enabled: 1
  m_EditorHideFlags: 0
  m_Script: {fileID: 11500000, guid: 74800614b4866c547a304f21ed7909eb, type: 3}
  m_Name: SkillChange
  m_EditorClassIdentifier: 
  sound: {fileID: 8300000, guid: e1ae86fc35851fb4ca0aa5ba5972aa08, type: 3}
  audioMixerGroup: {fileID: 243208001469173184, guid: 52cf26ef2e909b44d9beece24f4da6cf,
    type: 2}
  volume: 1
  pitch: 1
  minRange: 1
