%YAML 1.1
%TAG !u! tag:unity3d.com,2011:
--- !u!1 &4921589388706664787
GameObject:
  m_ObjectHideFlags: 0
  m_CorrespondingSourceObject: {fileID: 0}
  m_PrefabInstance: {fileID: 0}
  m_PrefabAsset: {fileID: 0}
  serializedVersion: 6
  m_Component:
  - component: {fileID: 4921589388706664790}
  - component: {fileID: 4921589388706664785}
  - component: {fileID: 4921589388706664784}
  m_Layer: 0
  m_Name: LevelController_3
  m_TagString: Untagged
  m_Icon: {fileID: 0}
  m_NavMeshLayer: 0
  m_StaticEditorFlags: 0
  m_IsActive: 1
--- !u!4 &4921589388706664790
Transform:
  m_ObjectHideFlags: 0
  m_CorrespondingSourceObject: {fileID: 0}
  m_PrefabInstance: {fileID: 0}
  m_PrefabAsset: {fileID: 0}
  m_GameObject: {fileID: 4921589388706664787}
  m_LocalRotation: {x: 0, y: 0, z: 0, w: 1}
  m_LocalPosition: {x: 0, y: 0, z: 0}
  m_LocalScale: {x: 1, y: 1, z: 1}
  m_Children: []
  m_Father: {fileID: 0}
  m_RootOrder: 0
  m_LocalEulerAnglesHint: {x: 0, y: 0, z: 0}
--- !u!114 &4921589388706664785
MonoBehaviour:
  m_ObjectHideFlags: 0
  m_CorrespondingSourceObject: {fileID: 0}
  m_PrefabInstance: {fileID: 0}
  m_PrefabAsset: {fileID: 0}
  m_GameObject: {fileID: 4921589388706664787}
  m_Enabled: 1
  m_EditorHideFlags: 0
  m_Script: {fileID: 11500000, guid: a38564fb22fdf3e498d674c30880e446, type: 3}
  m_Name: 
  m_EditorClassIdentifier: 
  levelDimension: {x: 40, y: 40}
  gridDimension: {x: 100, y: 100}
  numberOfRooms: 6
  allSpawnRoom:
  - {fileID: 9160860092291162700, guid: c3fcf6020a285984a86656e4327b644f, type: 3}
  - {fileID: 5451749839693835738, guid: c66938d6d4f45fe429bf5305fd75cad3, type: 3}
  - {fileID: 2824833886395800336, guid: d06312869b39a6c4d93f8877931779c9, type: 3}
  - {fileID: 4310285509226413863, guid: 57ad98e0546e26b4d9e39c5c970437e6, type: 3}
  allRooms:
  - {fileID: 4781425747267847234, guid: f030eed176c18b348b89c49417d10cb5, type: 3}
  - {fileID: 6871528734543205162, guid: 4f91784b1d4e5b74caa1f2a9767f5e1a, type: 3}
  - {fileID: 7806655885569695043, guid: 6527955aeacf4d34cb4a6f9763098828, type: 3}
  - {fileID: 1222474034913111740, guid: c933b292b3077034db7f9895175b2a95, type: 3}
  - {fileID: 8258811593681318656, guid: b3c3b3280e455be4c8fce6f5fc13c9a4, type: 3}
  - {fileID: 6801912157818051454, guid: ab520b800a4f7f64a8f5659876b34e7a, type: 3}
  - {fileID: 1459593610508105057, guid: 2b115e5fb4d16244cafcafdf52fe3df6, type: 3}
  - {fileID: 521237697312716014, guid: 533610f3219dee64f9bc292a9f35d1cb, type: 3}
  - {fileID: 1117262664451458865, guid: c74a90d1c832320468b659968924cfc6, type: 3}
  - {fileID: 5408846227140385031, guid: 99830a1f8b5edc347b35bbcb1473f246, type: 3}
  allEndRooms:
  - {fileID: 1582310005289848167, guid: 770734ff1dd021e44a42831d18c7a2d2, type: 3}
  - {fileID: 4768798257273812856, guid: 8e61cf82a3d40194ba7622c56c703407, type: 3}
  - {fileID: 5028696452978684513, guid: e94b7866a21939b4497e7917be33a9c6, type: 3}
  - {fileID: 1514283318883667324, guid: 7138c388d289df1498999aaf64eb17e3, type: 3}
  allNextLevelRoom:
  - {fileID: 8988405511466331117, guid: 9e8faa07e9ca9974996c4c27aa51b7ec, type: 3}
  - {fileID: 3960410987639678084, guid: 6b7ea601907df9d4891a7a172973389b, type: 3}
  - {fileID: 9143147982193869387, guid: bdc2b41a3482c704da13f55c2cacc38f, type: 3}
  - {fileID: 6297690529143810803, guid: ff87006139afcc94c871a76543c17f43, type: 3}
--- !u!114 &4921589388706664784
MonoBehaviour:
  m_ObjectHideFlags: 0
  m_CorrespondingSourceObject: {fileID: 0}
  m_PrefabInstance: {fileID: 0}
  m_PrefabAsset: {fileID: 0}
  m_GameObject: {fileID: 4921589388706664787}
  m_Enabled: 1
  m_EditorHideFlags: 0
  m_Script: {fileID: 11500000, guid: 3df27b9289d1e8c4fb82e0df4f4673ba, type: 3}
  m_Name: 
  m_EditorClassIdentifier: 
  m_AgentTypeID: 0
  m_CollectObjects: 0
  m_Size: {x: 10, y: 10, z: 10}
  m_Center: {x: 0, y: 2, z: 0}
  m_LayerMask:
    serializedVersion: 2
    m_Bits: 4294967295
  m_UseGeometry: 0
  m_DefaultArea: 0
  m_IgnoreNavMeshAgent: 1
  m_IgnoreNavMeshObstacle: 1
  m_OverrideTileSize: 0
  m_TileSize: 256
  m_OverrideVoxelSize: 0
  m_VoxelSize: 0.16666667
  m_BuildHeightMesh: 0
  m_NavMeshData: {fileID: 0}
