%YAML 1.1
%TAG !u! tag:unity3d.com,2011:
--- !u!1 &4921589388706664787
GameObject:
  m_ObjectHideFlags: 0
  m_CorrespondingSourceObject: {fileID: 0}
  m_PrefabInstance: {fileID: 0}
  m_PrefabAsset: {fileID: 0}
  serializedVersion: 6
  m_Component:
  - component: {fileID: 4921589388706664790}
  - component: {fileID: 4921589388706664785}
  - component: {fileID: 4921589388706664784}
  m_Layer: 0
  m_Name: LevelController_1
  m_TagString: Untagged
  m_Icon: {fileID: 0}
  m_NavMeshLayer: 0
  m_StaticEditorFlags: 0
  m_IsActive: 1
--- !u!4 &4921589388706664790
Transform:
  m_ObjectHideFlags: 0
  m_CorrespondingSourceObject: {fileID: 0}
  m_PrefabInstance: {fileID: 0}
  m_PrefabAsset: {fileID: 0}
  m_GameObject: {fileID: 4921589388706664787}
  m_LocalRotation: {x: 0, y: 0, z: 0, w: 1}
  m_LocalPosition: {x: 0, y: 0, z: 0}
  m_LocalScale: {x: 1, y: 1, z: 1}
  m_Children: []
  m_Father: {fileID: 0}
  m_RootOrder: 0
  m_LocalEulerAnglesHint: {x: 0, y: 0, z: 0}
--- !u!114 &4921589388706664785
MonoBehaviour:
  m_ObjectHideFlags: 0
  m_CorrespondingSourceObject: {fileID: 0}
  m_PrefabInstance: {fileID: 0}
  m_PrefabAsset: {fileID: 0}
  m_GameObject: {fileID: 4921589388706664787}
  m_Enabled: 1
  m_EditorHideFlags: 0
  m_Script: {fileID: 11500000, guid: a38564fb22fdf3e498d674c30880e446, type: 3}
  m_Name: 
  m_EditorClassIdentifier: 
  levelDimension: {x: 40, y: 40}
  gridDimension: {x: 100, y: 100}
  numberOfRooms: 4
  allSpawnRoom:
  - {fileID: 9160860092291162700, guid: c3fcf6020a285984a86656e4327b644f, type: 3}
  - {fileID: 5451749839693835738, guid: c66938d6d4f45fe429bf5305fd75cad3, type: 3}
  - {fileID: 2824833886395800336, guid: d06312869b39a6c4d93f8877931779c9, type: 3}
  - {fileID: 4310285509226413863, guid: 57ad98e0546e26b4d9e39c5c970437e6, type: 3}
  allRooms:
  - {fileID: 2680763973146688137, guid: d45c546b6cfaffa4f8e13393ba5abe8f, type: 3}
  - {fileID: 2091588724335298533, guid: 264493a157f33cb49b5eead8dd5e759f, type: 3}
  - {fileID: 3352849816988210959, guid: 8864c3f54dedbca42a2dbeff6c011b05, type: 3}
  - {fileID: 6814738624372383103, guid: 1f99cebb4561b6348b08acc61c278bdc, type: 3}
  - {fileID: 1263049884819541467, guid: ca0d3edc55004e14890386623ae785b3, type: 3}
  - {fileID: 4143308180962710837, guid: bb7cdf57961b9aa4990afcf9b21543f5, type: 3}
  - {fileID: 3968479946146706616, guid: bf10dcf8b4b98384bb292e22ad24cbd4, type: 3}
  - {fileID: 8834656619284254413, guid: f722b44802990634cb5d0d39293d0dc7, type: 3}
  allEndRooms:
  - {fileID: 1403423224186587152, guid: 876a689e581d16346ab3df503b58f2c1, type: 3}
  - {fileID: 3701806769332671203, guid: ee5d8a8fe9f3f8f4aa6444eaca1fda38, type: 3}
  - {fileID: 597261224439887496, guid: b90c30260bd74974ba640a6954d0fd23, type: 3}
  - {fileID: 9160860092291162700, guid: 99fd9de3327d8754b9dd5a0a78c39c52, type: 3}
  allNextLevelRoom:
  - {fileID: 8988405511466331117, guid: 9e8faa07e9ca9974996c4c27aa51b7ec, type: 3}
  - {fileID: 3960410987639678084, guid: 6b7ea601907df9d4891a7a172973389b, type: 3}
  - {fileID: 9143147982193869387, guid: bdc2b41a3482c704da13f55c2cacc38f, type: 3}
  - {fileID: 6297690529143810803, guid: ff87006139afcc94c871a76543c17f43, type: 3}
--- !u!114 &4921589388706664784
MonoBehaviour:
  m_ObjectHideFlags: 0
  m_CorrespondingSourceObject: {fileID: 0}
  m_PrefabInstance: {fileID: 0}
  m_PrefabAsset: {fileID: 0}
  m_GameObject: {fileID: 4921589388706664787}
  m_Enabled: 1
  m_EditorHideFlags: 0
  m_Script: {fileID: 11500000, guid: 3df27b9289d1e8c4fb82e0df4f4673ba, type: 3}
  m_Name: 
  m_EditorClassIdentifier: 
  m_AgentTypeID: 0
  m_CollectObjects: 0
  m_Size: {x: 10, y: 10, z: 10}
  m_Center: {x: 0, y: 2, z: 0}
  m_LayerMask:
    serializedVersion: 2
    m_Bits: 4294967295
  m_UseGeometry: 0
  m_DefaultArea: 0
  m_IgnoreNavMeshAgent: 1
  m_IgnoreNavMeshObstacle: 1
  m_OverrideTileSize: 0
  m_TileSize: 256
  m_OverrideVoxelSize: 0
  m_VoxelSize: 0.16666667
  m_BuildHeightMesh: 0
  m_NavMeshData: {fileID: 0}
